{
  "totalCount": 114,
  "pageSize": 10,
  "currentPage": 1,
  "totalPages": 12,
  "items": [
    {
      "beanId": 1,
      "groupName": ["Jelly Belly Official Flavors", "Soda Pop Shoppe® Flavors"],
      "ingredients": [
        "Sugar",
        "Corn Syrup",
        "Modified Food Starch",
        "Contains 2% Or Less Of The Following:",
        "Citric Acid",
        "Sodium Lactate",
        "Natural & Artificial Flavor",
        "Color Added",
        "Yellow 5",
        "Blue 1",
        "Beeswax",
        "Carnauba Wax",
        "Confectioner'S Glaze"
      ],
      "flavorName": "7Up",
      "description": "The Refreshing And Crisp Flavor Of Lemon Lime Soda.",
      "colorGroup": "khaki",
      "backgroundColor": "#CEDC91",
      "imageUrl": "https://cdn-tp1.mozu.com/9046-m1/cms/files/ab692677-5471-4863-91a8-659363ae4cc4",
      "glutenFree": false,
      "sugarFree": false,
      "seasonal": false,
      "kosher": true
    },
    {
      "beanId": 2,
      "groupName": ["Jelly Belly Official Flavors", "Soda Pop Shoppe® Flavors"],
      "ingredients": [
        "Sugar",
        "Corn Syrup",
        "Modified Food Starch",
        "Contains 2% Or Less Of The Following:",
        "Natural And Artificial Flavors",
        "Color Added",
        "Beeswax",
        "Carnauba Wax",
        "Confectioner'S Glaze."
      ],
      "flavorName": "A&W® Cream Soda",
      "description": "A Deliciously Creamy Take On The Classic Vanilla Flavor.",
      "colorGroup": "gainsboro",
      "backgroundColor": "#E1DFE1",
      "imageUrl": "https://cdn-tp1.mozu.com/9046-m1/cms/files/75fea694-ed38-4e84-a86e-182e31ea5a7b",
      "glutenFree": false,
      "sugarFree": false,
      "seasonal": false,
      "kosher": true
    },
    {
      "beanId": 3,
      "groupName": ["Jelly Belly Official Flavors", "Soda Pop Shoppe® Flavors"],
      "ingredients": [
        "Sugar",
        "Corn Syrup",
        "Modified Food Starch",
        "Contains 2% Or Less Of The Following:",
        "Natural & Artificial Flavors",
        "Color Added",
        "Vegetable & Fruit Juice (Color)",
        "Beeswax",
        "Carnauba Wax",
        "Confectioner'S Glaze."
      ],
      "flavorName": "A&W® Root Beer",
      "description": "Say 'Cheers' With The Flavor Of This All-American Classic Drink.",
      "colorGroup": "saddlebrown",
      "backgroundColor": "#792E27",
      "imageUrl": "https://cdn-tp1.mozu.com/9046-m1/cms/files/63b9e71d-9866-4044-9af7-7a64a52b0e0e",
      "glutenFree": false,
      "sugarFree": false,
      "seasonal": false,
      "kosher": true
    },
    {
      "beanId": 4,
      "groupName": ["Superfruit Flavors"],
      "ingredients": [
        "Cane Sugar",
        "Tapioca Syrup",
        "Modified Food Starch",
        "Sour Cherry Juice From Concentrate",
        "Blueberry Juice From Blueberry Puree",
        "Pomegranate Juice From Concentrate",
        "Acai Puree",
        "Natural Flavors",
        "Acerola (Barbados) Cherry Juice",
        "Cranberry Puree",
        "Citric Acid",
        "Apple (Color)",
        "Confectioner'S Glaze",
        "Beeswax",
        "Grape Concentrate (Color)",
        "Carrot (Color)",
        "Carnauba Wax",
        "Black Currant (Color)",
        "Hibiscus (Color)",
        "Color Added."
      ],
      "flavorName": "Acai Berry",
      "description": "Hard To Pronounce But A Delight To Enjoy. A Super Sweet And Rich Berry Taste Unlike Any Other.",
      "colorGroup": "darkslategray",
      "backgroundColor": "#5B3640",
      "imageUrl": "https://cdn-tp1.mozu.com/9046-m1/cms/files/6f0c6164-71c8-47f6-a55f-893f5fd58fa0",
      "glutenFree": false,
      "sugarFree": false,
      "seasonal": false,
      "kosher": true
    },
    {
      "beanId": 5,
      "groupName": ["Cold Stone® Flavors"],
      "ingredients": [
        "Sugar",
        "Corn Syrup",
        "Modified Food Starch",
        "Contains 2% Or Less Of The Following:",
        "Strawberry Puree",
        "Chocolate Liquor",
        "Cocoa Butter",
        "Cocoa Powder",
        "Citric Acid",
        "Ground Cinnamon",
        "Tapioca Dextrin",
        "Natural And Artificial Flavor",
        "Color Added",
        "Red 40 Lake",
        "Yellow 5 & 6 Lake",
        "Red 40",
        "Blue 1 & 2 Lake",
        "Blue 1",
        "Yellow 5",
        "Beeswax",
        "Carnauba Wax",
        "Confectioner'S Glaze",
        "Salt."
      ],
      "flavorName": "Apple Pie A La Cold Stone®",
      "description": "A Creamy Combination Of French Vanilla, Apple Pie, And Caramel Flavors Adds A Sweet Twist To The Classic American Dessert.",
      "colorGroup": "burlywood",
      "backgroundColor": "#F0C57F",
      "imageUrl": "https://cdn-tp1.mozu.com/9046-m1/cms/files/81f5ecb8-250b-403f-a1bf-89fb6e47dd0d",
      "glutenFree": false,
      "sugarFree": false,
      "seasonal": false,
      "kosher": true
    },
    {
      "beanId": 6,
      "groupName": ["Superfruit Flavors"],
      "ingredients": [
        "Cane Sugar",
        "Tapioca Syrup",
        "Modified Food Starch",
        "Sour Cherry Juice From Concentrate",
        "Blueberry Juice From Blueberry Puree",
        "Pomegranate Juice From Concentrate",
        "Acai Puree",
        "Natural Flavors",
        "Acerola (Barbados) Cherry Juice",
        "Cranberry Puree",
        "Citric Acid",
        "Apple (Color)",
        "Confectioner'S Glaze",
        "Beeswax",
        "Grape Concentrate (Color)",
        "Carrot (Color)",
        "Carnauba Wax",
        "Black Currant (Color)",
        "Hibiscus (Color)",
        "Color Added."
      ],
      "flavorName": "Barbados Cherry",
      "description": "A Sweet Cherry Flavor With Just A Hint Of Tartness.",
      "colorGroup": "lightpink",
      "backgroundColor": "#E798AB",
      "imageUrl": "https://cdn-tp1.mozu.com/9046-m1/cms/files/168244d0-b3ba-4725-a2d9-5083b362d10a",
      "glutenFree": false,
      "sugarFree": false,
      "seasonal": false,
      "kosher": true
    },
    {
      "beanId": 7,
      "groupName": ["Jelly Belly Official Flavors"],
      "ingredients": [
        "Sugar",
        "Corn Syrup",
        "Modified Food Starch",
        "Blueberry Juice From Puree",
        "Contains 2% Or Less Of The Following:",
        "Citric Acid",
        "Natural & Artificial Flavor",
        "Color Added",
        "Blue 1 Lake",
        "Beeswax",
        "Carnauba Wax",
        "Confectioner'S Glaze."
      ],
      "flavorName": "Blueberry",
      "description": "Enjoy The Taste Of Fresh-Picked Blueberries. Deliciously Flavored With Real Blueberry Puree.",
      "colorGroup": "steelblue",
      "backgroundColor": "#3A7195",
      "imageUrl": "https://cdn-tp1.mozu.com/9046-m1/cms/files/a8f085b5-b4ff-4aca-8650-43ad54c80fe4",
      "glutenFree": false,
      "sugarFree": false,
      "seasonal": false,
      "kosher": true
    },
    {
      "beanId": 8,
      "groupName": ["Jelly Belly Official Flavors", "Kids Mix Flavors"],
      "ingredients": [
        "Sugar",
        "Corn Syrup",
        "Modified Food Starch",
        "Contains 2% Or Less Of The Following:",
        "Artificial Flavor",
        "Color Added",
        "Red 40 Lake",
        "Red 40",
        "Yellow 5 Lake",
        "Beeswax",
        "Carnauba Wax",
        "Confectioner'S Glaze."
      ],
      "flavorName": "Bubble Gum",
      "description": "This Bean Has Everything But The Bubble! Taking A Trip Down Memory Lane Has Never Tasted So Good.",
      "colorGroup": "lightpink",
      "backgroundColor": "#E3ACBD",
      "imageUrl": "https://cdn-tp1.mozu.com/9046-m1/cms/files/51474130-73e9-40b7-a8ba-c9eac7be7de4",
      "glutenFree": false,
      "sugarFree": false,
      "seasonal": false,
      "kosher": true
    },
    {
      "beanId": 9,
      "groupName": ["Jelly Belly Official Flavors", "Kids Mix Flavors"],
      "ingredients": [
        "Sugar",
        "Corn Syrup",
        "Modified Food Starch",
        "Contains 2% Or Less Of The Following:",
        "Natural And Artificial Flavors",
        "Color Added",
        "Yellow 5",
        "Beeswax",
        "Carnauba Wax",
        "Confectioner'S Glaze",
        "Salt."
      ],
      "flavorName": "Buttered Popcorn",
      "description": "Now You Can Enjoy Buttery Perfection Without Having To Go To The Movies.",
      "colorGroup": "gold",
      "backgroundColor": "#F6D334",
      "imageUrl": "https://cdn-tp1.mozu.com/9046-m1/cms/files/61207309-fffb-443a-b735-b9a5a6374c8d",
      "glutenFree": false,
      "sugarFree": false,
      "seasonal": false,
      "kosher": true
    },
    {
      "beanId": 10,
      "groupName": ["Jelly Belly Official Flavors", "Tropical Mix Flavors"],
      "ingredients": [
        "Sugar",
        "Corn Syrup",
        "Modified Food Starch",
        "Cantaloupe Juice From Cantaloupe Powder",
        "Contains 2% Or Less Of The Following:",
        "Natural And Artificial Flavors",
        "Color Added",
        "Yellow 6 Lake",
        "Yellow 6",
        "Beeswax",
        "Carnauba Wax",
        "Confectioner'S Glaze."
      ],
      "flavorName": "Cantaloupe",
      "description": "This Sweet Summertime Favorite Is Always In Season.",
      "colorGroup": "goldenrod",
      "backgroundColor": "#FAA538",
      "imageUrl": "https://cdn-tp1.mozu.com/9046-m1/cms/files/45d0972c-e554-4374-8b21-ac50ff450d3e",
      "glutenFree": false,
      "sugarFree": false,
      "seasonal": false,
      "kosher": true
    }
  ]
}
